%YAML 1.1
%TAG !u! tag:unity3d.com,2011:
--- !u!114 &11400000
MonoBehaviour:
  m_ObjectHideFlags: 0
  m_CorrespondingSourceObject: {fileID: 0}
  m_PrefabInternal: {fileID: 0}
  m_GameObject: {fileID: 0}
  m_Enabled: 1
  m_EditorHideFlags: 0
  m_Script: {fileID: 11500000, guid: 272eb1ab6fdade04598cee3e960efcb6, type: 3}
  m_Name: Level 01 Pointer Presets
  m_EditorClassIdentifier: 
  hoverInState: {fileID: 11400000, guid: 8353be98b3516664eb6b1064d8bd4a6e, type: 2}
  hoverOutState: {fileID: 11400000, guid: be7946a6c992a1e45ad138a061964620, type: 2}
  clickState: {fileID: 11400000, guid: 806dcc920af7fa147b291a94566cda2b, type: 2}
