%YAML 1.1
%TAG !u! tag:unity3d.com,2011:
--- !u!114 &11400000
MonoBehaviour:
  m_ObjectHideFlags: 0
  m_CorrespondingSourceObject: {fileID: 0}
  m_PrefabInternal: {fileID: 0}
  m_GameObject: {fileID: 0}
  m_Enabled: 1
  m_EditorHideFlags: 0
  m_Script: {fileID: 11500000, guid: dd57cbd0f1c556344822b138d5e2372b, type: 3}
  m_Name: CAP site unbound
  m_EditorClassIdentifier: 
  name: C site
  layerMask:
    serializedVersion: 2
    m_Bits: 512
  model: {fileID: 1312488266879704, guid: cd84c24b00521134599626ca2fd694b6, type: 2}
  tobiiModel: {fileID: 1636135153516534, guid: 7313eace57f3de34fac12ed4829ce098, type: 2}
  ligandMols: []
  bindActions: []
  spawnActions: []
  radius: 0.5
  contrainTransform: 0
  cooldownTime: 0
  maxNumber: 1
  pool: 1
  material: {fileID: 0}
