%YAML 1.1
%TAG !u! tag:unity3d.com,2011:
--- !u!114 &11400000
MonoBehaviour:
  m_ObjectHideFlags: 0
  m_CorrespondingSourceObject: {fileID: 0}
  m_PrefabInternal: {fileID: 0}
  m_GameObject: {fileID: 0}
  m_Enabled: 1
  m_EditorHideFlags: 0
  m_Script: {fileID: 11500000, guid: dd57cbd0f1c556344822b138d5e2372b, type: 3}
  m_Name: lacY site
  m_EditorClassIdentifier: 
  name: lacY
  layerMask:
    serializedVersion: 2
    m_Bits: 512
  model: {fileID: 1561514549617902, guid: d8e021b71cc780b41a78064b489943ea, type: 2}
  tobiiModel: {fileID: 1867346066189874, guid: efb6cfff442f0584ab9c7487fab401ad, type: 2}
  ligandMols: []
  bindActions: []
  spawnActions: []
  radius: 0.5
  contrainTransform: 0
  cooldownTime: 0
  maxNumber: 1
  pool: 1
  material: {fileID: 0}
