%YAML 1.1
%TAG !u! tag:unity3d.com,2011:
--- !u!114 &11400000
MonoBehaviour:
  m_ObjectHideFlags: 0
  m_CorrespondingSourceObject: {fileID: 0}
  m_PrefabInternal: {fileID: 0}
  m_GameObject: {fileID: 0}
  m_Enabled: 1
  m_EditorHideFlags: 0
  m_Script: {fileID: 11500000, guid: 1ec7ee4422a0962488aefec9a178ab1f, type: 3}
  m_Name: SlowCube
  m_EditorClassIdentifier: 
  onEnterActions:
  - {fileID: 11400000, guid: 727ab979660ba7a4caa59aff478f7b53, type: 2}
  onExecuteActions: []
  onExitActions: []
  transitions:
  - decision: {fileID: 11400000, guid: 7d1e276e356d81844b2d250d98cdb95e, type: 2}
    trueState: {fileID: 11400000, guid: 5b407d292b6c9c746a88f9d7cd995ac0, type: 2}
