%YAML 1.1
%TAG !u! tag:unity3d.com,2011:
--- !u!114 &11400000
MonoBehaviour:
  m_ObjectHideFlags: 0
  m_CorrespondingSourceObject: {fileID: 0}
  m_PrefabInternal: {fileID: 0}
  m_GameObject: {fileID: 0}
  m_Enabled: 1
  m_EditorHideFlags: 0
  m_Script: {fileID: 11500000, guid: 97c55736ab1fcb642a62b261dec7eabb, type: 3}
  m_Name: SpawnContinuousLactose
  m_EditorClassIdentifier: 
  molecule: {fileID: 11400000, guid: fe06517f984090c4db8e587aa07ae7fd, type: 2}
  interval: 2.5
