%YAML 1.1
%TAG !u! tag:unity3d.com,2011:
--- !u!114 &11400000
MonoBehaviour:
  m_ObjectHideFlags: 0
  m_CorrespondingSourceObject: {fileID: 0}
  m_PrefabInternal: {fileID: 0}
  m_GameObject: {fileID: 0}
  m_Enabled: 1
  m_EditorHideFlags: 0
  m_Script: {fileID: 11500000, guid: dd57cbd0f1c556344822b138d5e2372b, type: 3}
  m_Name: allolactose
  m_EditorClassIdentifier: 
  name: allolactose
  layerMask:
    serializedVersion: 2
    m_Bits: 512
  model: {fileID: 1704417900628696, guid: 096f1797d086ae748b23b68abe54a2b2, type: 2}
  tobiiModel: {fileID: 1447119144384890, guid: bd457976a8669bd4fa4a0bc08c0cf90c, type: 2}
  ligandMols: []
  bindActions: []
  spawnActions: []
  radius: 0.5
  contrainTransform: 0
  cooldownTime: 0
  maxNumber: 10
  pool: 1
