%YAML 1.1
%TAG !u! tag:unity3d.com,2011:
--- !u!114 &11400000
MonoBehaviour:
  m_ObjectHideFlags: 0
  m_CorrespondingSourceObject: {fileID: 0}
  m_PrefabInternal: {fileID: 0}
  m_GameObject: {fileID: 0}
  m_Enabled: 1
  m_EditorHideFlags: 0
  m_Script: {fileID: 11500000, guid: dd57cbd0f1c556344822b138d5e2372b, type: 3}
  m_Name: lac I repressor inactive
  m_EditorClassIdentifier: 
  name: repressor
  layerMask:
    serializedVersion: 2
    m_Bits: 512
  model: {fileID: 1579344177607678, guid: 55c0c03291728da4fad64f6f8ebe9292, type: 2}
  tobiiModel: {fileID: 1790234720932376, guid: 8560b9540c4af7b4385ae2da696972d7, type: 2}
  ligandMols: []
  bindActions: []
  spawnActions: []
  radius: 0.5
  contrainTransform: 0
  cooldownTime: 0
  maxNumber: 10
  pool: 1
  material: {fileID: 0}
  disableRandomMotion: 0
