%YAML 1.1
%TAG !u! tag:unity3d.com,2011:
--- !u!114 &11400000
MonoBehaviour:
  m_ObjectHideFlags: 0
  m_CorrespondingSourceObject: {fileID: 0}
  m_PrefabInternal: {fileID: 0}
  m_GameObject: {fileID: 0}
  m_Enabled: 1
  m_EditorHideFlags: 0
  m_Script: {fileID: 11500000, guid: 272eb1ab6fdade04598cee3e960efcb6, type: 3}
  m_Name: Level 02 Pointer Presets
  m_EditorClassIdentifier: 
  hoverInState: {fileID: 11400000, guid: c281758bad79f9649a9e8fb0fb44766c, type: 2}
  hoverOutState: {fileID: 11400000, guid: 9dba969c273fd984bb09e643ca864800, type: 2}
  clickState: {fileID: 11400000, guid: 4917b3dea89e5f84a9d53e9f9256372b, type: 2}
