%YAML 1.1
%TAG !u! tag:unity3d.com,2011:
--- !u!114 &11400000
MonoBehaviour:
  m_ObjectHideFlags: 0
  m_CorrespondingSourceObject: {fileID: 0}
  m_PrefabInternal: {fileID: 0}
  m_GameObject: {fileID: 0}
  m_Enabled: 1
  m_EditorHideFlags: 0
  m_Script: {fileID: 11500000, guid: 1ec7ee4422a0962488aefec9a178ab1f, type: 3}
  m_Name: IdleState
  m_EditorClassIdentifier: 
  onEnterActions:
  - {fileID: 11400000, guid: 8f2561097d4922c40af58f1d7e02c389, type: 2}
  onExecuteActions: []
  onExitActions: []
  transitions:
  - decision: {fileID: 11400000, guid: 485f2b3d80826a94d8f39ddb93f09497, type: 2}
    trueState: {fileID: 11400000, guid: d9f6883d700882f4e82b48a7783509a9, type: 2}
